C:\Users\Rodolfo\JavaEE-workspace\ProjectAvenue\src\main\java\org\rodolfo\ProjectAvenue\config\JerseyConfig.java
C:\Users\Rodolfo\JavaEE-workspace\ProjectAvenue\src\main\java\org\rodolfo\ProjectAvenue\App.java
C:\Users\Rodolfo\JavaEE-workspace\ProjectAvenue\src\main\java\org\rodolfo\ProjectAvenue\repository\ImageRepository.java
C:\Users\Rodolfo\JavaEE-workspace\ProjectAvenue\src\main\java\org\rodolfo\ProjectAvenue\resources\ProductResources.java
C:\Users\Rodolfo\JavaEE-workspace\ProjectAvenue\src\main\java\org\rodolfo\ProjectAvenue\model\Image.java
C:\Users\Rodolfo\JavaEE-workspace\ProjectAvenue\src\main\java\org\rodolfo\ProjectAvenue\model\SimplifiedProduct.java
C:\Users\Rodolfo\JavaEE-workspace\ProjectAvenue\src\main\java\org\rodolfo\ProjectAvenue\repository\ProductRepository.java
C:\Users\Rodolfo\JavaEE-workspace\ProjectAvenue\src\main\java\org\rodolfo\ProjectAvenue\model\Product.java
